lab04/lab04.vcd
$date
	Tue Sep 21 11:35:46 2021
$end
$version
	Icarus Verilog
$end
$timescale
	1s
$end
$scope module lab_testbench $end
$var wire 8 ! txdata [7:0] $end
$var wire 1 " txclk $end
$var wire 8 # ss7 [7:0] $end
$var wire 8 $ ss6 [7:0] $end
$var wire 8 % ss5 [7:0] $end
$var wire 8 & ss4 [7:0] $end
$var wire 8 ' ss3 [7:0] $end
$var wire 8 ( ss2 [7:0] $end
$var wire 8 ) ss1 [7:0] $end
$var wire 8 * ss0 [7:0] $end
$var wire 1 + rxclk $end
$var wire 8 , right [7:0] $end
$var wire 1 - red $end
$var wire 8 . left [7:0] $end
$var wire 1 / green $end
$var wire 1 0 blue $end
$var reg 8 1 ans [7:0] $end
$var reg 16 2 corr [15:0] $end
$var reg 1 3 errored $end
$var reg 1 4 hz100 $end
$var reg 21 5 pb [20:0] $end
$var reg 1 6 reset $end
$var reg 8 7 rxdata [7:0] $end
$var reg 1 8 rxready $end
$var reg 1024 9 testname [1023:0] $end
$var reg 1 : txready $end
$var integer 32 ; STDERR [31:0] $end
$scope module top_inst $end
$var wire 1 4 hz100 $end
$var wire 21 < pb [20:0] $end
$var wire 1 6 reset $end
$var wire 8 = rxdata [7:0] $end
$var wire 1 8 rxready $end
$var wire 1 : txready $end
$var wire 8 > ss7 [7:0] $end
$var wire 8 ? ss6 [7:0] $end
$var wire 8 @ ss5 [7:0] $end
$var wire 8 A ss4 [7:0] $end
$var wire 8 B ss3 [7:0] $end
$var wire 8 C ss2 [7:0] $end
$var wire 8 D ss1 [7:0] $end
$var wire 8 E ss0 [7:0] $end
$var wire 8 F right [7:0] $end
$var wire 8 G left [7:0] $end
$var reg 1 0 blue $end
$var reg 1 / green $end
$var reg 1 - red $end
$var reg 1 + rxclk $end
$var reg 1 " txclk $end
$var reg 8 H txdata [7:0] $end
$scope module led $end
$var wire 16 I in [15:0] $end
$var wire 16 J out [15:0] $end
$upscope $end
$scope module v1 $end
$var wire 3 K in2 [2:0] $end
$var wire 8 L out2 [7:0] $end
$upscope $end
$upscope $end
$upscope $end
$enddefinitions $end
#0
$dumpvars
b1 L
b0 K
b0 J
b0 I
bx H
b0 G
b0 F
b10000000 E
b0zzzzzzz D
b0zzzzzzz C
b0zzzzzzz B
b0zzzzzzz A
b0zzzzzzz @
b0zzzzzzz ?
b0zzzzzzz >
bx =
b0 <
b10000000000000000000000000000010 ;
x:
b100001001100001011100100110011101110010011000010111000001101000001000000101010001100101011100110111010001110011 9
x8
bx 7
x6
b0 5
x4
03
bx 2
bx 1
x0
x/
b0 .
x-
b0 ,
x+
b10000000 *
b0zzzzzzz )
b0zzzzzzz (
b0zzzzzzz '
b0zzzzzzz &
b0zzzzzzz %
b0zzzzzzz $
b0zzzzzzz #
x"
bx !
$end
#10
b1 ,
b1 F
b1zzzzzzz )
b1zzzzzzz D
b1 *
b1 E
b1 J
b1 I
b10 L
b1 K
b1 2
b1 5
b1 <
#30
b11 ,
b11 F
b11 J
b0zzzzzzz )
b0zzzzzzz D
b1zzzzzzz (
b1zzzzzzz C
b10 *
b10 E
b10 I
b100 L
b10 K
b10 5
b10 <
b11 2
#40
b111 ,
b111 F
b111 J
b0zzzzzzz (
b0zzzzzzz C
b1zzzzzzz &
b1zzzzzzz A
b100 *
b100 E
b100 I
b10000 L
b100 K
b100 5
b100 <
b111 2
#50
b1111 ,
b1111 F
b1111 J
b0zzzzzzz &
b0zzzzzzz A
b10001000 *
b10001000 E
b1000 I
b1 L
b0 K
b1000 5
b1000 <
b1111 2
#60
b11111 ,
b11111 F
b11111 J
b10010000 *
b10010000 E
b10000 I
b10000 5
b10000 <
b11111 2
#70
b111111 ,
b111111 F
b111111 J
b10100000 *
b10100000 E
b100000 I
b100000 5
b100000 <
b111111 2
#80
b1111111 ,
b1111111 F
b1111111 J
b11000000 *
b11000000 E
b1000000 I
b1000000 5
b1000000 <
b1111111 2
#90
b11111111 ,
b11111111 F
b11111111 J
b10000000 *
b10000000 E
b10000000 I
b10000000 5
b10000000 <
b11111111 2
#100
b1 .
b1 G
b111111111 J
b100000000 I
b100000000 5
b100000000 <
b111111111 2
#110
b11 .
b11 G
b1111111111 J
b1000000000 I
b1000000000 5
b1000000000 <
b1111111111 2
#120
b111 .
b111 G
b11111111111 J
b10000000000 I
b10000000000 5
b10000000000 <
b11111111111 2
#130
b1111 .
b1111 G
b111111111111 J
b100000000000 I
b100000000000 5
b100000000000 <
b111111111111 2
#140
b11111 .
b11111 G
b1111111111111 J
b1000000000000 I
b1000000000000 5
b1000000000000 <
b1111111111111 2
#150
b111111 .
b111111 G
b11111111111111 J
b10000000000000 I
b10000000000000 5
b10000000000000 <
b11111111111111 2
#160
b1111111 .
b1111111 G
b111111111111111 J
b100000000000000 I
b100000000000000 5
b100000000000000 <
b111111111111111 2
#170
b11111111 .
b11111111 G
b1111111111111111 J
b1000000000000000 I
b1000000000000000 5
b1000000000000000 <
b1111111111111111 2
#180
b0 .
b0 G
b0 ,
b0 F
b0 J
b0 I
b1 2
b1000100011001010110001101101111011001000110010101110010001000000101010001100101011100110111010001110011 9
b0 5
b0 <
#190
b1 ,
b1 F
b1zzzzzzz )
b1zzzzzzz D
b1 *
b1 E
b1 J
b1 I
b10 L
b1 K
b1 5
b1 <
b10 2
b1 1
#200
b11 ,
b11 F
b11 J
b0zzzzzzz )
b0zzzzzzz D
b1zzzzzzz (
b1zzzzzzz C
b10 *
b10 E
b10 I
b100 L
b10 K
b10 5
b10 <
b100 2
b10 1
#210
b0zzzzzzz (
b0zzzzzzz C
b1zzzzzzz '
b1zzzzzzz B
b11 *
b11 E
b11 I
b1000 L
b11 K
b11 5
b11 <
b1000 2
b100 1
#220
b111 ,
b111 F
b111 J
b0zzzzzzz '
b0zzzzzzz B
b1zzzzzzz &
b1zzzzzzz A
b100 *
b100 E
b100 I
b10000 L
b100 K
b100 5
b100 <
b10000 2
b1000 1
#230
b0zzzzzzz &
b0zzzzzzz A
b1zzzzzzz %
b1zzzzzzz @
b101 *
b101 E
b101 I
b100000 L
b101 K
b101 5
b101 <
b100000 2
b10000 1
#240
b0zzzzzzz %
b0zzzzzzz @
b1zzzzzzz $
b1zzzzzzz ?
b110 *
b110 E
b110 I
b1000000 L
b110 K
b110 5
b110 <
b1000000 2
b100000 1
#250
b0zzzzzzz $
b0zzzzzzz ?
b1zzzzzzz #
b1zzzzzzz >
b111 *
b111 E
b111 I
b10000000 L
b111 K
b111 5
b111 <
b10000000 2
b1000000 1
#260
b1111 ,
b1111 F
b1111 J
b0zzzzzzz #
b0zzzzzzz >
b10001000 *
b10001000 E
b1000 I
b1 L
b0 K
b1000 5
b1000 <
b100000000 2
b10000000 1
